{
    "name": "Master",
    "maps": [
        {
            "name": "Master",
            "id": "da12e711-f933-428a-8f2c-204df172817d",
            "actions": [
                {
                    "name": "MouseX",
                    "type": "PassThrough",
                    "id": "7acd7d6b-c7c9-4148-ac16-e15dc0a67165",
                    "expectedControlType": "Axis",
                    "processors": "",
                    "interactions": ""
                },
                {
                    "name": "MouseY",
                    "type": "PassThrough",
                    "id": "90552686-2df7-41f0-a0bb-84061d033a7e",
                    "expectedControlType": "Axis",
                    "processors": "",
                    "interactions": ""
                },
                {
                    "name": "Forward",
                    "type": "Value",
                    "id": "6a28933e-1965-41ea-81d8-1b47ba59d038",
                    "expectedControlType": "",
                    "processors": "",
                    "interactions": ""
                },
                {
                    "name": "Backward",
                    "type": "Value",
                    "id": "86c7a6ae-f9a2-4989-9930-a89b911dc2d3",
                    "expectedControlType": "",
                    "processors": "",
                    "interactions": ""
                },
                {
                    "name": "Left",
                    "type": "Value",
                    "id": "55c6461d-140f-4ba5-894b-451abbe33160",
                    "expectedControlType": "",
                    "processors": "",
                    "interactions": ""
                },
                {
                    "name": "Right",
                    "type": "Value",
                    "id": "c2c1c226-6035-49f7-80b7-55a34595af46",
                    "expectedControlType": "",
                    "processors": "",
                    "interactions": ""
                },
                {
                    "name": "Jump",
                    "type": "Button",
                    "id": "54cbae71-edbb-4f0a-b3c7-632dfdc6b644",
                    "expectedControlType": "Button",
                    "processors": "",
                    "interactions": ""
                },
                {
                    "name": "Fire",
                    "type": "Button",
                    "id": "e8036d14-d50d-4930-b26d-57ca59214662",
                    "expectedControlType": "Button",
                    "processors": "",
                    "interactions": ""
                },
                {
                    "name": "Reload",
                    "type": "Button",
                    "id": "e7badd32-4162-4d89-9a07-3e6a61aa41f4",
                    "expectedControlType": "Button",
                    "processors": "",
                    "interactions": ""
                },
                {
                    "name": "Swap Weapons",
                    "type": "Button",
                    "id": "87d91e89-0ac8-44a9-b974-dc2c3e0d688f",
                    "expectedControlType": "Button",
                    "processors": "",
                    "interactions": ""
                }
            ],
            "bindings": [
                {
                    "name": "",
                    "id": "12bbcc12-69e9-495d-8ade-4c09e98d240f",
                    "path": "<Mouse>/delta/x",
                    "interactions": "",
                    "processors": "",
                    "groups": "",
                    "action": "MouseX",
                    "isComposite": false,
                    "isPartOfComposite": false
                },
                {
                    "name": "",
                    "id": "70302577-6400-488e-81ba-9076f793d1d3",
                    "path": "<Mouse>/delta/y",
                    "interactions": "",
                    "processors": "",
                    "groups": "",
                    "action": "MouseY",
                    "isComposite": false,
                    "isPartOfComposite": false
                },
                {
                    "name": "",
                    "id": "ce8af398-7911-42d1-96a0-9c280e42bae4",
                    "path": "<Keyboard>/w",
                    "interactions": "",
                    "processors": "",
                    "groups": "",
                    "action": "Forward",
                    "isComposite": false,
                    "isPartOfComposite": false
                },
                {
                    "name": "",
                    "id": "aa623944-ccc9-4eb1-97fb-0a824068f6da",
                    "path": "<Keyboard>/s",
                    "interactions": "",
                    "processors": "",
                    "groups": "",
                    "action": "Backward",
                    "isComposite": false,
                    "isPartOfComposite": false
                },
                {
                    "name": "",
                    "id": "c0dce3c0-496c-4dc8-9f72-0267ea7572ec",
                    "path": "<Keyboard>/a",
                    "interactions": "",
                    "processors": "",
                    "groups": "",
                    "action": "Left",
                    "isComposite": false,
                    "isPartOfComposite": false
                },
                {
                    "name": "",
                    "id": "211d017c-c8b6-4911-8447-405243a5eecb",
                    "path": "<Keyboard>/d",
                    "interactions": "",
                    "processors": "",
                    "groups": "",
                    "action": "Right",
                    "isComposite": false,
                    "isPartOfComposite": false
                },
                {
                    "name": "",
                    "id": "e996109a-9fb1-4d50-b9a5-d7e9c731d05e",
                    "path": "<Keyboard>/space",
                    "interactions": "",
                    "processors": "",
                    "groups": "",
                    "action": "Jump",
                    "isComposite": false,
                    "isPartOfComposite": false
                },
                {
                    "name": "",
                    "id": "711f6a31-b343-4908-afdf-8ba672ab3003",
                    "path": "<Mouse>/leftButton",
                    "interactions": "",
                    "processors": "",
                    "groups": "",
                    "action": "Fire",
                    "isComposite": false,
                    "isPartOfComposite": false
                },
                {
                    "name": "",
                    "id": "5225343c-b5b9-4bc0-8c95-e7c60b527d26",
                    "path": "<Keyboard>/r",
                    "interactions": "",
                    "processors": "",
                    "groups": "",
                    "action": "Reload",
                    "isComposite": false,
                    "isPartOfComposite": false
                },
                {
                    "name": "",
                    "id": "a607de10-f764-4d98-8e16-efbcdf79c9a7",
                    "path": "<Keyboard>/1",
                    "interactions": "",
                    "processors": "",
                    "groups": "",
                    "action": "Swap Weapons",
                    "isComposite": false,
                    "isPartOfComposite": false
                }
            ]
        }
    ],
    "controlSchemes": []
}